{
  "time": 1611922558035,
  "first10": [
    {
      "userId": 5511370787282949,
      "score": 125299998,
      "rank": 1,
      "isOwn": false,
      "name": "愛島瑠璃華",
      "userCard": {
        "cardId": 9,
        "level": 20,
        "masterRank": 5,
        "specialTrainingStatus": "not_doing",
        "defaultImage": "original"
      },
      "userProfile": {
        "userId": 5511370787282949,
        "word": "雫様、努力の姿は一番完璧よ",
        "honorId1": 342,
        "honorLevel1": 1,
        "honorId2": 30,
        "honorLevel2": 1,
        "honorId3": 237,
        "honorLevel3": 1,
        "twitterId": "ASMKKS",
        "profileImageType": "leader"
      }
    },
    {
      "userId": 5137046532431873,
      "score": 123456789,
      "rank": 2,
      "isOwn": false,
      "name": "はなこ",
      "userCard": {
        "cardId": 160,
        "level": 60,
        "masterRank": 5,
        "specialTrainingStatus": "done",
        "defaultImage": "special_training"
      },
      "userProfile": {
        "userId": 5137046532431873,
        "word": "最終日7時間寝落ち太郎。許してくれるかな…",
        "honorId1": 186,
        "honorLevel1": 1,
        "honorId2": 30,
        "honorLevel2": 1,
        "honorId3": 14,
        "honorLevel3": 2,
        "twitterId": "",
        "profileImageType": "leader"
      }
    },
    {
      "userId": 6692569345990665,
      "score": 118010015,
      "rank": 3,
      "isOwn": false,
      "name": "ななせ",
      "userCard": {
        "cardId": 162,
        "level": 60,
        "masterRank": 5,
        "specialTrainingStatus": "done",
        "defaultImage": "special_training"
      },
      "userProfile": {
        "userId": 6692569345990665,
        "word": "もう限界…走れないよぉ… 許してくれるかな",
        "honorId1": 26,
        "honorLevel1": 1,
        "honorId2": 259,
        "honorLevel2": 1,
        "honorId3": 332,
        "honorLevel3": 1,
        "twitterId": "",
        "profileImageType": "leader"
      }
    },
    {
      "userId": 24633038826762250,
      "score": 112061206,
      "rank": 4,
      "isOwn": false,
      "name": "黒乃 霧亜",
      "userCard": {
        "cardId": 160,
        "level": 60,
        "masterRank": 5,
        "specialTrainingStatus": "done",
        "defaultImage": "original"
      },
      "userProfile": {
        "userId": 24633038826762250,
        "word": "フォルトナエンタテインメント所属",
        "honorId1": 30,
        "honorLevel1": 1,
        "twitterId": "",
        "profileImageType": "leader"
      }
    },
    {
      "userId": 7078025925906447,
      "score": 87654321,
      "rank": 5,
      "isOwn": false,
      "name": "いつか見た夢",
      "userCard": {
        "cardId": 152,
        "level": 60,
        "masterRank": 5,
        "specialTrainingStatus": "done",
        "defaultImage": "original"
      },
      "userProfile": {
        "userId": 7078025925906447,
        "word": "深校の給水タンク 深校ってどこなんやろか…",
        "honorId1": 133,
        "honorLevel1": 1,
        "twitterId": "(株)イ・ベラン深螺",
        "profileImageType": "leader"
      }
    },
    {
      "userId": 5278725667414028,
      "score": 87654321,
      "rank": 6,
      "isOwn": false,
      "name": "辿り着いた終着点",
      "userCard": {
        "cardId": 131,
        "level": 60,
        "masterRank": 5,
        "specialTrainingStatus": "done",
        "defaultImage": "special_training"
      },
      "userProfile": {
        "userId": 5278725667414028,
        "word": "許しません。",
        "honorId1": 133,
        "honorLevel1": 1,
        "twitterId": "GCRuping1212",
        "profileImageType": "leader"
      }
    },
    {
      "userId": 6728997300383747,
      "score": 80000000,
      "rank": 7,
      "isOwn": false,
      "name": "準備満タン",
      "userCard": {
        "cardId": 160,
        "level": 60,
        "masterRank": 5,
        "specialTrainingStatus": "done",
        "defaultImage": "special_training"
      },
      "userProfile": {
        "userId": 6728997300383747,
        "word": "ODDS&ENDS 何度聴いても感動します;_;",
        "honorId1": 105,
        "honorLevel1": 1,
        "honorId2": 94,
        "honorLevel2": 1,
        "honorId3": 30,
        "honorLevel3": 1,
        "twitterId": "メルト民",
        "profileImageType": "leader"
      }
    },
    {
      "userId": 5165481556299789,
      "score": 71376838,
      "rank": 8,
      "isOwn": false,
      "name": "ダヨーさん",
      "userCard": {
        "cardId": 162,
        "level": 60,
        "masterRank": 5,
        "specialTrainingStatus": "done",
        "defaultImage": "special_training"
      },
      "userProfile": {
        "userId": 5165481556299789,
        "word": "ツイ募の方々本当にありがとうございました！",
        "honorId1": 26,
        "honorLevel1": 1,
        "honorId2": 112,
        "honorLevel2": 1,
        "honorId3": 147,
        "honorLevel3": 1,
        "twitterId": "",
        "profileImageType": "leader"
      }
    },
    {
      "userId": 5170669297913864,
      "score": 67429105,
      "rank": 9,
      "isOwn": false,
      "name": "百合すこすこ",
      "userCard": {
        "cardId": 111,
        "level": 60,
        "masterRank": 5,
        "specialTrainingStatus": "done",
        "defaultImage": "special_training"
      },
      "userProfile": {
        "userId": 5170669297913864,
        "word": "日野森雫が好きです          429105=雫百合",
        "honorId1": 186,
        "honorLevel1": 1,
        "honorId2": 30,
        "honorLevel2": 2,
        "honorId3": 14,
        "honorLevel3": 1,
        "twitterId": "otomecrisis",
        "profileImageType": "leader"
      }
    },
    {
      "userId": 5242512214675461,
      "score": 57575757,
      "rank": 10,
      "isOwn": false,
      "name": "赤身",
      "userCard": {
        "cardId": 160,
        "level": 60,
        "masterRank": 5,
        "specialTrainingStatus": "done",
        "defaultImage": "original"
      },
      "userProfile": {
        "userId": 5242512214675461,
        "word": "G！U！T！S！雫！！",
        "honorId1": 211,
        "honorLevel1": 2,
        "honorId2": 30,
        "honorLevel2": 1,
        "honorId3": 237,
        "honorLevel3": 1,
        "twitterId": "Akamioisiiiii",
        "profileImageType": "leader"
      }
    }
  ],
  "rank20": [
    {
      "userId": 7431055183437834,
      "score": 45000000,
      "rank": 20,
      "isOwn": false,
      "name": "ふぉるて",
      "userCard": {
        "cardId": 162,
        "level": 60,
        "masterRank": 5,
        "specialTrainingStatus": "done",
        "defaultImage": "original"
      },
      "userProfile": {
        "userId": 7431055183437834,
        "word": "一日一万回感謝の独りんぼエンヴィー",
        "honorId1": 54,
        "honorLevel1": 2,
        "honorId2": 313,
        "honorLevel2": 1,
        "honorId3": 412,
        "honorLevel3": 1,
        "twitterId": "pome_f5",
        "profileImageType": "leader"
      }
    }
  ],
  "rank30": [
    {
      "userId": 5493752936722441,
      "score": 33333333,
      "rank": 30,
      "isOwn": false,
      "name": "YASMON໒꒱03",
      "userCard": {
        "cardId": 161,
        "level": 60,
        "masterRank": 5,
        "specialTrainingStatus": "done",
        "defaultImage": "special_training"
      },
      "userProfile": {
        "userId": 5493752936722441,
        "word": "ル゛カ゛さ゛ぁ゛ぁ゛ぁ゛ん゛ 21.01.25ルカさん羽称号",
        "honorId1": 94,
        "honorLevel1": 1,
        "honorId2": 448,
        "honorLevel2": 1,
        "honorId3": 123,
        "honorLevel3": 1,
        "twitterId": "Yasumon1105",
        "profileImageType": "leader"
      }
    }
  ],
  "rank40": [
    {
      "userId": 5306700550852609,
      "score": 31776392,
      "rank": 40,
      "isOwn": false,
      "name": "冴えないスピカ",
      "userCard": {
        "cardId": 162,
        "level": 60,
        "masterRank": 5,
        "specialTrainingStatus": "done",
        "defaultImage": "special_training"
      },
      "userProfile": {
        "userId": 5306700550852609,
        "word": "(っ´ω`c)",
        "honorId1": 211,
        "honorLevel1": 1,
        "honorId2": 29,
        "honorLevel2": 4,
        "honorId3": 17,
        "honorLevel3": 5,
        "twitterId": "",
        "profileImageType": "leader"
      }
    }
  ],
  "rank50": [
    {
      "userId": 5537651302170638,
      "score": 29517981,
      "rank": 50,
      "isOwn": false,
      "name": "雫ちゃんファンサして",
      "userCard": {
        "cardId": 160,
        "level": 60,
        "masterRank": 5,
        "specialTrainingStatus": "done",
        "defaultImage": "special_training"
      },
      "userProfile": {
        "userId": 5537651302170638,
        "word": "(⊃ωｰ`)zz",
        "honorId1": 30,
        "honorLevel1": 1,
        "twitterId": "ruru_mr13",
        "profileImageType": "leader"
      }
    }
  ],
  "rank100": [
    {
      "userId": 6345015588749324,
      "score": 19667612,
      "rank": 100,
      "isOwn": false,
      "name": "俺から下は全員タコ",
      "userCard": {
        "cardId": 160,
        "level": 60,
        "masterRank": 0,
        "specialTrainingStatus": "done",
        "defaultImage": "original"
      },
      "userProfile": {
        "userId": 6345015588749324,
        "word": "やっぱり無課金の限界かもしれない",
        "honorId1": 237,
        "honorLevel1": 1,
        "honorId2": 142,
        "honorLevel2": 1,
        "honorId3": 198,
        "honorLevel3": 1,
        "twitterId": "",
        "profileImageType": "leader"
      }
    }
  ],
  "rank200": [
    {
      "userId": 46094742769201160,
      "score": 10383472,
      "rank": 200,
      "isOwn": false,
      "name": "お味噌汁下さい",
      "userCard": {
        "cardId": 160,
        "level": 60,
        "masterRank": 0,
        "specialTrainingStatus": "done",
        "defaultImage": "original"
      },
      "userProfile": {
        "userId": 46094742769201160,
        "word": "私が味噌汁になるんだよ",
        "honorId1": 29,
        "honorLevel1": 2,
        "honorId2": 111,
        "honorLevel2": 1,
        "honorId3": 130,
        "honorLevel3": 1,
        "twitterId": "",
        "profileImageType": "leader"
      }
    }
  ],
  "rank300": [
    {
      "userId": 46480163181051920,
      "score": 8299759,
      "rank": 300,
      "isOwn": false,
      "name": "もちゃん",
      "userCard": {
        "cardId": 160,
        "level": 60,
        "masterRank": 0,
        "specialTrainingStatus": "done",
        "defaultImage": "special_training"
      },
      "userProfile": {
        "userId": 46480163181051920,
        "word": "♡雫ちゃん！>o<♡",
        "honorId1": 29,
        "honorLevel1": 3,
        "twitterId": "",
        "profileImageType": "leader"
      }
    }
  ],
  "rank400": [
    {
      "userId": 5252326948454408,
      "score": 6952030,
      "rank": 400,
      "isOwn": false,
      "name": "みかん",
      "userCard": {
        "cardId": 116,
        "level": 60,
        "masterRank": 0,
        "specialTrainingStatus": "done",
        "defaultImage": "special_training"
      },
      "userProfile": {
        "userId": 5252326948454408,
        "word": "指が追いつかんのよ笑",
        "honorId1": 274,
        "honorLevel1": 1,
        "honorId2": 325,
        "honorLevel2": 1,
        "honorId3": 233,
        "honorLevel3": 1,
        "twitterId": "mikan01051",
        "profileImageType": "leader"
      }
    }
  ],
  "rank500": [
    {
      "userId": 6261776412938244,
      "score": 6680271,
      "rank": 500,
      "isOwn": false,
      "name": "すいせー",
      "userCard": {
        "cardId": 161,
        "level": 60,
        "masterRank": 2,
        "specialTrainingStatus": "done",
        "defaultImage": "original"
      },
      "userProfile": {
        "userId": 6261776412938244,
        "word": "酸味です。ワンダショモモジャン推し！ルカ推し！バチャシンすこ",
        "honorId1": 533,
        "honorLevel1": 1,
        "honorId2": 106,
        "honorLevel2": 1,
        "honorId3": 93,
        "honorLevel3": 4,
        "twitterId": "prsksuise",
        "profileImageType": "leader"
      }
    }
  ],
  "rank1000": [
    {
      "userId": 5119783746555904,
      "score": 4289223,
      "rank": 1000,
      "isOwn": false,
      "name": "かずみぃぬ",
      "userCard": {
        "cardId": 129,
        "level": 60,
        "masterRank": 0,
        "specialTrainingStatus": "done",
        "defaultImage": "special_training"
      },
      "userProfile": {
        "userId": 5119783746555904,
        "word": "ほぼHeardしかできませんがよろしくエビバ部仮入部中。",
        "honorId1": 105,
        "honorLevel1": 1,
        "honorId2": 81,
        "honorLevel2": 3,
        "honorId3": 134,
        "honorLevel3": 1,
        "twitterId": "",
        "profileImageType": "leader"
      }
    }
  ],
  "rank2000": [
    {
      "userId": 5381602758819851,
      "score": 2402978,
      "rank": 2000,
      "isOwn": false,
      "name": "かしお",
      "userCard": {
        "cardId": 162,
        "level": 60,
        "masterRank": 0,
        "specialTrainingStatus": "done",
        "defaultImage": "special_training"
      },
      "userProfile": {
        "userId": 5381602758819851,
        "word": "プロセカ楽しい！",
        "honorId1": 312,
        "honorLevel1": 1,
        "honorId2": 21,
        "honorLevel2": 5,
        "honorId3": 342,
        "honorLevel3": 1,
        "twitterId": "casiorange",
        "profileImageType": "leader"
      }
    }
  ],
  "rank3000": [
    {
      "userId": 5943408506454026,
      "score": 1949439,
      "rank": 3000,
      "isOwn": false,
      "name": "韋駄天の龍",
      "userCard": {
        "cardId": 109,
        "level": 60,
        "masterRank": 5,
        "specialTrainingStatus": "done",
        "defaultImage": "special_training"
      },
      "userProfile": {
        "userId": 5943408506454026,
        "word": "10月1日〜",
        "honorId1": 5,
        "honorLevel1": 5,
        "honorId2": 118,
        "honorLevel2": 3,
        "honorId3": 108,
        "honorLevel3": 1,
        "twitterId": "RyuRyu1015",
        "profileImageType": "leader"
      }
    }
  ],
  "rank4000": [
    {
      "userId": 5568429281677319,
      "score": 1723049,
      "rank": 4000,
      "isOwn": false,
      "name": "結渡",
      "userCard": {
        "cardId": 134,
        "level": 60,
        "masterRank": 5,
        "specialTrainingStatus": "done",
        "defaultImage": "special_training"
      },
      "userProfile": {
        "userId": 5568429281677319,
        "word": "ボカロ最高。ビビバスも大好き。無(理のない)課金勢(ФωФ)",
        "honorId1": 115,
        "honorLevel1": 1,
        "honorId2": 215,
        "honorLevel2": 3,
        "honorId3": 247,
        "honorLevel3": 1,
        "twitterId": "",
        "profileImageType": "leader"
      }
    }
  ],
  "rank5000": [
    {
      "userId": 5537222438707208,
      "score": 1662959,
      "rank": 5000,
      "isOwn": false,
      "name": "まさ",
      "userCard": {
        "cardId": 116,
        "level": 60,
        "masterRank": 0,
        "specialTrainingStatus": "done",
        "defaultImage": "special_training"
      },
      "userProfile": {
        "userId": 5537222438707208,
        "word": "プロセカ楽しんでます！",
        "honorId1": 132,
        "honorLevel1": 1,
        "honorId2": 133,
        "honorLevel2": 1,
        "honorId3": 131,
        "honorLevel3": 1,
        "twitterId": "",
        "profileImageType": "leader"
      }
    }
  ],
  "rank10000": [
    {
      "userId": 21886575222775816,
      "score": 1231018,
      "rank": 10000,
      "isOwn": false,
      "name": "寒くて手が動かん",
      "userCard": {
        "cardId": 115,
        "level": 60,
        "masterRank": 4,
        "specialTrainingStatus": "done",
        "defaultImage": "special_training"
      },
      "userProfile": {
        "userId": 21886575222775816,
        "word": "奏ちゃんが尊い",
        "honorId1": 65,
        "honorLevel1": 3,
        "honorId2": 131,
        "honorLevel2": 1,
        "honorId3": 114,
        "honorLevel3": 1,
        "twitterId": "",
        "profileImageType": "leader"
      }
    }
  ],
  "rank20000": [
    {
      "userId": 5431157068091396,
      "score": 943203,
      "rank": 20000,
      "isOwn": false,
      "name": "しろくま",
      "userCard": {
        "cardId": 78,
        "level": 30,
        "masterRank": 5,
        "specialTrainingStatus": "not_doing",
        "defaultImage": "original"
      },
      "userProfile": {
        "userId": 5431157068091396,
        "word": "よろしくお願いします！",
        "honorId1": 77,
        "honorLevel1": 4,
        "honorId2": 69,
        "honorLevel2": 3,
        "honorId3": 73,
        "honorLevel3": 3,
        "twitterId": "",
        "profileImageType": "leader"
      }
    }
  ],
  "rank30000": [
    {
      "userId": 6780290517819398,
      "score": 820097,
      "rank": 30000,
      "isOwn": false,
      "name": "こんぶ",
      "userCard": {
        "cardId": 88,
        "level": 60,
        "masterRank": 0,
        "specialTrainingStatus": "done",
        "defaultImage": "original"
      },
      "userProfile": {
        "userId": 6780290517819398,
        "word": "おしかわよ",
        "honorId1": 49,
        "honorLevel1": 3,
        "honorId2": 5,
        "honorLevel2": 2,
        "honorId3": 429,
        "honorLevel3": 1,
        "twitterId": "",
        "profileImageType": "leader"
      }
    }
  ],
  "rank40000": [
    {
      "userId": 44033836715196424,
      "score": 734423,
      "rank": 40000,
      "isOwn": false,
      "name": "るーちゃん",
      "userCard": {
        "cardId": 157,
        "level": 60,
        "masterRank": 0,
        "specialTrainingStatus": "done",
        "defaultImage": "special_training"
      },
      "userProfile": {
        "userId": 44033836715196424,
        "word": "",
        "honorId1": 65,
        "honorLevel1": 1,
        "honorId2": 105,
        "honorLevel2": 1,
        "honorId3": 127,
        "honorLevel3": 1,
        "twitterId": "",
        "profileImageType": "leader"
      }
    }
  ],
  "rank50000": [
    {
      "userId": 42407106871332880,
      "score": 678026,
      "rank": 50000,
      "isOwn": false,
      "name": "みかチノ",
      "userCard": {
        "cardId": 7,
        "level": 50,
        "masterRank": 0,
        "specialTrainingStatus": "done",
        "defaultImage": "special_training"
      },
      "userProfile": {
        "userId": 42407106871332880,
        "word": "",
        "honorId1": 5,
        "honorLevel1": 3,
        "honorId2": 33,
        "honorLevel2": 1,
        "honorId3": 73,
        "honorLevel3": 1,
        "twitterId": "",
        "profileImageType": "leader"
      }
    }
  ],
  "rank100000": [
    {
      "userId": 5262095470522383,
      "score": 444298,
      "rank": 100000,
      "isOwn": false,
      "name": "月夜",
      "userCard": {
        "cardId": 23,
        "level": 40,
        "masterRank": 0,
        "specialTrainingStatus": "not_doing",
        "defaultImage": "original"
      },
      "userProfile": {
        "userId": 5262095470522383,
        "word": "",
        "honorId1": 379,
        "honorLevel1": 1,
        "honorId2": 108,
        "honorLevel2": 1,
        "honorId3": 435,
        "honorLevel3": 1,
        "twitterId": "",
        "profileImageType": "leader"
      }
    }
  ]
}