{
  "time": 1608293758817,
  "first10": [
    {
      "userId": 6171739449282560,
      "score": 120709262,
      "rank": 1,
      "isOwn": false,
      "name": "夏音",
      "userCard": {
        "cardId": 139,
        "level": 60,
        "masterRank": 5,
        "specialTrainingStatus": "done",
        "defaultImage": "special_training"
      },
      "userProfile": {
        "userId": 6171739449282560,
        "word": "39！",
        "honorId1": 185,
        "honorLevel1": 1,
        "honorId2": 106,
        "honorLevel2": 1,
        "honorId3": 134,
        "honorLevel3": 1,
        "twitterId": "",
        "profileImageType": "leader"
      }
    },
    {
      "userId": 5444917795045385,
      "score": 108270000,
      "rank": 2,
      "isOwn": false,
      "name": "KAMIKOU",
      "userCard": {
        "cardId": 139,
        "level": 60,
        "masterRank": 5,
        "specialTrainingStatus": "done",
        "defaultImage": "original"
      },
      "userProfile": {
        "userId": 5444917795045385,
        "word": "瑞希ちゃんかわいい",
        "honorId2": 78,
        "honorLevel2": 1,
        "honorId3": 82,
        "honorLevel3": 2,
        "twitterId": "a9b_",
        "profileImageType": "leader"
      }
    },
    {
      "userId": 11464120079659008,
      "score": 100624827,
      "rank": 3,
      "isOwn": false,
      "name": "FESTIVAL！",
      "userCard": {
        "cardId": 119,
        "level": 60,
        "masterRank": 5,
        "specialTrainingStatus": "done",
        "defaultImage": "original"
      },
      "userProfile": {
        "userId": 11464120079659008,
        "word": "暁山瑞希を性的な目で見るオタクを許さない2020",
        "honorId1": 285,
        "honorLevel1": 1,
        "honorId2": 62,
        "honorLevel2": 1,
        "honorId3": 78,
        "honorLevel3": 1,
        "twitterId": "プロセカありがと〜！",
        "profileImageType": "leader"
      }
    },
    {
      "userId": 5310933454934021,
      "score": 71001223,
      "rank": 4,
      "isOwn": false,
      "name": "「青」発売中@メジロ",
      "userCard": {
        "cardId": 139,
        "level": 60,
        "masterRank": 5,
        "specialTrainingStatus": "done",
        "defaultImage": "original"
      },
      "userProfile": {
        "userId": 5310933454934021,
        "word": "佐藤日向推し！23/12 お誕生日おめでとう！",
        "honorId1": 259,
        "honorLevel1": 1,
        "honorId2": 78,
        "honorLevel2": 1,
        "honorId3": 223,
        "honorLevel3": 2,
        "twitterId": "",
        "profileImageType": "leader"
      }
    },
    {
      "userId": 5136881373413378,
      "score": 66927215,
      "rank": 5,
      "isOwn": false,
      "name": "ゆきしょ",
      "userCard": {
        "cardId": 109,
        "level": 60,
        "masterRank": 5,
        "specialTrainingStatus": "done",
        "defaultImage": "special_training"
      },
      "userProfile": {
        "userId": 5136881373413378,
        "word": "咲希しか勝たん！",
        "honorId1": 207,
        "honorLevel1": 1,
        "honorId2": 6,
        "honorLevel2": 1,
        "honorId3": 13,
        "honorLevel3": 5,
        "twitterId": "",
        "profileImageType": "leader"
      }
    },
    {
      "userId": 5212217918783501,
      "score": 66837378,
      "rank": 6,
      "isOwn": false,
      "name": "ʕ•̀ω•́ʔ",
      "userCard": {
        "cardId": 139,
        "level": 60,
        "masterRank": 5,
        "specialTrainingStatus": "done",
        "defaultImage": "special_training"
      },
      "userProfile": {
        "userId": 5212217918783501,
        "word": "みずきちしか勝たん( ᵕ ω ᵕ )",
        "honorId1": 264,
        "honorLevel1": 1,
        "honorId2": 69,
        "honorLevel2": 4,
        "honorId3": 78,
        "honorLevel3": 1,
        "twitterId": "",
        "profileImageType": "leader"
      }
    },
    {
      "userId": 17626153162665994,
      "score": 65912455,
      "rank": 7,
      "isOwn": false,
      "name": "かおり",
      "userCard": {
        "cardId": 109,
        "level": 60,
        "masterRank": 5,
        "specialTrainingStatus": "done",
        "defaultImage": "special_training"
      },
      "userProfile": {
        "userId": 17626153162665994,
        "word": "Exできません…ごめんなさい！！！",
        "honorId1": 5,
        "honorLevel1": 5,
        "honorId2": 129,
        "honorLevel2": 1,
        "honorId3": 132,
        "honorLevel3": 1,
        "twitterId": "",
        "profileImageType": "leader"
      }
    },
    {
      "userId": 5473253955207172,
      "score": 65432163,
      "rank": 8,
      "isOwn": false,
      "name": "ぷみぃ",
      "userCard": {
        "cardId": 139,
        "level": 60,
        "masterRank": 5,
        "specialTrainingStatus": "done",
        "defaultImage": "special_training"
      },
      "userProfile": {
        "userId": 5473253955207172,
        "word": "2020/10/07start キミと見たいセカイへ",
        "honorId1": 78,
        "honorLevel1": 1,
        "honorId2": 185,
        "honorLevel2": 1,
        "honorId3": 357,
        "honorLevel3": 1,
        "twitterId": "pmypjsk",
        "profileImageType": "leader"
      }
    },
    {
      "userId": 5136936645988357,
      "score": 63936210,
      "rank": 9,
      "isOwn": false,
      "name": "おーわい",
      "userCard": {
        "cardId": 139,
        "level": 60,
        "masterRank": 5,
        "specialTrainingStatus": "done",
        "defaultImage": "special_training"
      },
      "userProfile": {
        "userId": 5136936645988357,
        "word": "",
        "honorId1": 78,
        "honorLevel1": 1,
        "honorId2": 139,
        "honorLevel2": 1,
        "honorId3": 357,
        "honorLevel3": 1,
        "twitterId": "",
        "profileImageType": "leader"
      }
    },
    {
      "userId": 5204678694535177,
      "score": 63909461,
      "rank": 10,
      "isOwn": false,
      "name": "初音ミクとべっきょ",
      "userCard": {
        "cardId": 111,
        "level": 60,
        "masterRank": 5,
        "specialTrainingStatus": "done",
        "defaultImage": "special_training"
      },
      "userProfile": {
        "userId": 5204678694535177,
        "word": "初音ミクとべっきょでした　　　イベントお疲れ様！",
        "honorId1": 13,
        "honorLevel1": 5,
        "honorId2": 128,
        "honorLevel2": 1,
        "honorId3": 82,
        "honorLevel3": 2,
        "twitterId": "",
        "profileImageType": "leader"
      }
    }
  ],
  "rank20": [
    {
      "userId": 5290182891261961,
      "score": 49039073,
      "rank": 20,
      "isOwn": false,
      "name": "瑞希といっしょ",
      "userCard": {
        "cardId": 139,
        "level": 60,
        "masterRank": 5,
        "specialTrainingStatus": "done",
        "defaultImage": "original"
      },
      "userProfile": {
        "userId": 5290182891261961,
        "word": "ボクは見世物じゃないんだけどな",
        "honorId1": 78,
        "honorLevel1": 1,
        "twitterId": "Chikuwa0021",
        "profileImageType": "leader"
      }
    }
  ],
  "rank30": [
    {
      "userId": 5122287343083526,
      "score": 43700397,
      "rank": 30,
      "isOwn": false,
      "name": "にゃーご",
      "userCard": {
        "cardId": 139,
        "level": 60,
        "masterRank": 5,
        "specialTrainingStatus": "done",
        "defaultImage": "original"
      },
      "userProfile": {
        "userId": 5122287343083526,
        "word": "瑞希397〜！！！",
        "honorId1": 77,
        "honorLevel1": 4,
        "honorId2": 357,
        "honorLevel2": 1,
        "honorId3": 113,
        "honorLevel3": 1,
        "twitterId": "",
        "profileImageType": "leader"
      }
    }
  ],
  "rank40": [
    {
      "userId": 6619735475200008,
      "score": 39969878,
      "rank": 40,
      "isOwn": false,
      "name": "禁",
      "userCard": {
        "cardId": 139,
        "level": 60,
        "masterRank": 2,
        "specialTrainingStatus": "done",
        "defaultImage": "special_training"
      },
      "userProfile": {
        "userId": 6619735475200008,
        "word": "",
        "honorId1": 131,
        "honorLevel1": 1,
        "honorId2": 73,
        "honorLevel2": 2,
        "honorId3": 77,
        "honorLevel3": 5,
        "twitterId": "",
        "profileImageType": "leader"
      }
    }
  ],
  "rank50": [
    {
      "userId": 13258211042443272,
      "score": 38875393,
      "rank": 50,
      "isOwn": false,
      "name": "ブーン",
      "userCard": {
        "cardId": 139,
        "level": 60,
        "masterRank": 3,
        "specialTrainingStatus": "done",
        "defaultImage": "original"
      },
      "userProfile": {
        "userId": 13258211042443272,
        "word": "瑞希〜",
        "honorId1": 77,
        "honorLevel1": 5,
        "twitterId": "bo_rma_on",
        "profileImageType": "leader"
      }
    }
  ],
  "rank100": [
    {
      "userId": 13643877509079052,
      "score": 26700242,
      "rank": 100,
      "isOwn": false,
      "name": "セカイの住人",
      "userCard": {
        "cardId": 79,
        "level": 50,
        "masterRank": 0,
        "specialTrainingStatus": "done",
        "defaultImage": "special_training"
      },
      "userProfile": {
        "userId": 13643877509079052,
        "word": "",
        "twitterId": "",
        "profileImageType": "leader"
      }
    }
  ],
  "rank200": [
    {
      "userId": 5327193438142476,
      "score": 14473848,
      "rank": 200,
      "isOwn": false,
      "name": "えむりっと",
      "userCard": {
        "cardId": 139,
        "level": 60,
        "masterRank": 0,
        "specialTrainingStatus": "done",
        "defaultImage": "special_training"
      },
      "userProfile": {
        "userId": 5327193438142476,
        "word": "きゃううん！(イベ乙)",
        "honorId1": 222,
        "honorLevel1": 3,
        "honorId2": 114,
        "honorLevel2": 1,
        "honorId3": 127,
        "honorLevel3": 1,
        "twitterId": "",
        "profileImageType": "leader"
      }
    }
  ],
  "rank300": [
    {
      "userId": 5279058287968268,
      "score": 11585245,
      "rank": 300,
      "isOwn": false,
      "name": "スけトウダラ（笑",
      "userCard": {
        "cardId": 139,
        "level": 60,
        "masterRank": 4,
        "specialTrainingStatus": "done",
        "defaultImage": "special_training"
      },
      "userProfile": {
        "userId": 5279058287968268,
        "word": "KAMIKOU FESTIVAL！ ぴったり300位の人",
        "honorId1": 266,
        "honorLevel1": 1,
        "honorId2": 73,
        "honorLevel2": 4,
        "honorId3": 77,
        "honorLevel3": 4,
        "twitterId": "",
        "profileImageType": "leader"
      }
    }
  ],
  "rank400": [
    {
      "userId": 12587735823355914,
      "score": 9918704,
      "rank": 400,
      "isOwn": false,
      "name": "俺が400位ボーダー",
      "userCard": {
        "cardId": 110,
        "level": 60,
        "masterRank": 0,
        "specialTrainingStatus": "done",
        "defaultImage": "special_training"
      },
      "userProfile": {
        "userId": 12587735823355914,
        "word": "ルカ推し",
        "honorId1": 93,
        "honorLevel1": 3,
        "honorId2": 108,
        "honorLevel2": 1,
        "honorId3": 123,
        "honorLevel3": 1,
        "twitterId": "yuzuru_0815",
        "profileImageType": "leader"
      }
    }
  ],
  "rank500": [
    {
      "userId": 5120696590794755,
      "score": 9424750,
      "rank": 500,
      "isOwn": false,
      "name": "みさ",
      "userCard": {
        "cardId": 79,
        "level": 50,
        "masterRank": 5,
        "specialTrainingStatus": "done",
        "defaultImage": "special_training"
      },
      "userProfile": {
        "userId": 5120696590794755,
        "word": "Masterフルコン無理",
        "honorId1": 85,
        "honorLevel1": 3,
        "honorId2": 196,
        "honorLevel2": 1,
        "honorId3": 237,
        "honorLevel3": 1,
        "twitterId": "",
        "profileImageType": "leader"
      }
    }
  ],
  "rank1000": [
    {
      "userId": 8446433607467012,
      "score": 6281077,
      "rank": 1000,
      "isOwn": false,
      "name": "ひらの",
      "userCard": {
        "cardId": 141,
        "level": 60,
        "masterRank": 1,
        "specialTrainingStatus": "done",
        "defaultImage": "special_training"
      },
      "userProfile": {
        "userId": 8446433607467012,
        "word": "天駆けるペガサスと書いて天馬！",
        "honorId1": 49,
        "honorLevel1": 4,
        "honorId2": 53,
        "honorLevel2": 3,
        "honorId3": 319,
        "honorLevel3": 1,
        "twitterId": "Hirano_89",
        "profileImageType": "leader"
      }
    }
  ],
  "rank2000": [
    {
      "userId": 5260012461203460,
      "score": 3433187,
      "rank": 2000,
      "isOwn": false,
      "name": "bboss",
      "userCard": {
        "cardId": 139,
        "level": 60,
        "masterRank": 1,
        "specialTrainingStatus": "done",
        "defaultImage": "special_training"
      },
      "userProfile": {
        "userId": 5260012461203460,
        "word": "",
        "honorId1": 199,
        "honorLevel1": 1,
        "honorId2": 81,
        "honorLevel2": 4,
        "honorId3": 105,
        "honorLevel3": 1,
        "twitterId": "",
        "profileImageType": "leader"
      }
    }
  ],
  "rank3000": [
    {
      "userId": 7043829635604483,
      "score": 2655736,
      "rank": 3000,
      "isOwn": false,
      "name": "パパンガ",
      "userCard": {
        "cardId": 79,
        "level": 50,
        "masterRank": 5,
        "specialTrainingStatus": "done",
        "defaultImage": "special_training"
      },
      "userProfile": {
        "userId": 7043829635604483,
        "word": "よろしくお願いします!(音ゲー初心者です)",
        "honorId1": 108,
        "honorLevel1": 1,
        "honorId2": 65,
        "honorLevel2": 2,
        "honorId3": 81,
        "honorLevel3": 4,
        "twitterId": "",
        "profileImageType": "leader"
      }
    }
  ],
  "rank4000": [
    {
      "userId": 5245743229186055,
      "score": 2293425,
      "rank": 4000,
      "isOwn": false,
      "name": "なつみ＠Hard限界",
      "userCard": {
        "cardId": 110,
        "level": 60,
        "masterRank": 0,
        "specialTrainingStatus": "done",
        "defaultImage": "special_training"
      },
      "userProfile": {
        "userId": 5245743229186055,
        "word": "マスターとか凄過ぎる、、尊敬",
        "honorId1": 131,
        "honorLevel1": 1,
        "honorId2": 108,
        "honorLevel2": 1,
        "honorId3": 112,
        "honorLevel3": 1,
        "twitterId": "dna0101natsumi",
        "profileImageType": "leader"
      }
    }
  ],
  "rank5000": [
    {
      "userId": 17957109396455434,
      "score": 2199020,
      "rank": 5000,
      "isOwn": false,
      "name": "みおな",
      "userCard": {
        "cardId": 111,
        "level": 60,
        "masterRank": 0,
        "specialTrainingStatus": "done",
        "defaultImage": "special_training"
      },
      "userProfile": {
        "userId": 17957109396455434,
        "word": "",
        "honorId1": 133,
        "honorLevel1": 1,
        "honorId2": 115,
        "honorLevel2": 1,
        "honorId3": 112,
        "honorLevel3": 1,
        "twitterId": "",
        "profileImageType": "leader"
      }
    }
  ],
  "rank10000": [
    {
      "userId": 6355840726736906,
      "score": 1498597,
      "rank": 10000,
      "isOwn": false,
      "name": "ちゃ",
      "userCard": {
        "cardId": 79,
        "level": 50,
        "masterRank": 5,
        "specialTrainingStatus": "done",
        "defaultImage": "special_training"
      },
      "userProfile": {
        "userId": 6355840726736906,
        "word": "",
        "honorId1": 77,
        "honorLevel1": 3,
        "honorId2": 377,
        "honorLevel2": 1,
        "honorId3": 214,
        "honorLevel3": 1,
        "twitterId": "",
        "profileImageType": "leader"
      }
    }
  ],
  "rank20000": [
    {
      "userId": 5257894320766989,
      "score": 1051808,
      "rank": 20000,
      "isOwn": false,
      "name": "ズッキー",
      "userCard": {
        "cardId": 91,
        "level": 50,
        "masterRank": 0,
        "specialTrainingStatus": "done",
        "defaultImage": "special_training"
      },
      "userProfile": {
        "userId": 5257894320766989,
        "word": "宜しくお願いします",
        "honorId1": 118,
        "honorLevel1": 3,
        "honorId2": 81,
        "honorLevel2": 3,
        "honorId3": 131,
        "honorLevel3": 1,
        "twitterId": "",
        "profileImageType": "leader"
      }
    }
  ],
  "rank30000": [
    {
      "userId": 9976136628989956,
      "score": 900338,
      "rank": 30000,
      "isOwn": false,
      "name": "ヴァンピィ",
      "userCard": {
        "cardId": 140,
        "level": 60,
        "masterRank": 0,
        "specialTrainingStatus": "done",
        "defaultImage": "special_training"
      },
      "userProfile": {
        "userId": 9976136628989956,
        "word": "えびまよ",
        "honorId1": 25,
        "honorLevel1": 1,
        "honorId2": 37,
        "honorLevel2": 1,
        "honorId3": 237,
        "honorLevel3": 1,
        "twitterId": "",
        "profileImageType": "leader"
      }
    }
  ],
  "rank40000": [
    {
      "userId": 18645456569737216,
      "score": 800525,
      "rank": 40000,
      "isOwn": false,
      "name": "<a>可愛い</a>",
      "userCard": {
        "cardId": 109,
        "level": 60,
        "masterRank": 0,
        "specialTrainingStatus": "done",
        "defaultImage": "original"
      },
      "userProfile": {
        "userId": 18645456569737216,
        "word": "おはよ",
        "honorId1": 376,
        "honorLevel1": 1,
        "honorId2": 33,
        "honorLevel2": 2,
        "honorId3": 37,
        "honorLevel3": 3,
        "twitterId": "",
        "profileImageType": "leader"
      }
    }
  ],
  "rank50000": [
    {
      "userId": 29410877472329740,
      "score": 736540,
      "rank": 50000,
      "isOwn": false,
      "name": "SAKU",
      "userCard": {
        "cardId": 63,
        "level": 21,
        "masterRank": 1,
        "specialTrainingStatus": "not_doing",
        "defaultImage": "original"
      },
      "userProfile": {
        "userId": 29410877472329740,
        "word": "2020.12.8スタート　音ゲガチ初心者",
        "honorId1": 49,
        "honorLevel1": 3,
        "honorId2": 53,
        "honorLevel2": 2,
        "honorId3": 57,
        "honorLevel3": 2,
        "twitterId": "",
        "profileImageType": "leader"
      }
    }
  ],
  "rank100000": [
    {
      "userId": 5191009126957061,
      "score": 475491,
      "rank": 100000,
      "isOwn": false,
      "name": "セカイの暇人",
      "userCard": {
        "cardId": 122,
        "level": 50,
        "masterRank": 0,
        "specialTrainingStatus": "done",
        "defaultImage": "special_training"
      },
      "userProfile": {
        "userId": 5191009126957061,
        "word": "",
        "honorId1": 81,
        "honorLevel1": 2,
        "honorId2": 105,
        "honorLevel2": 1,
        "honorId3": 127,
        "honorLevel3": 1,
        "twitterId": "",
        "profileImageType": "leader"
      }
    }
  ]
}